2020-05-21 14:02:17 (-0400) DEBUG    Logging ready.
2020-05-21 14:02:17 (-0400) DEBUG    Logging ready.
2020-05-21 14:02:17 (-0400) DEBUG    Parsing args...
2020-05-21 14:02:17 (-0400) DEBUG    Parsing args...
2020-05-21 14:02:17 (-0400) DEBUG    Parsed args.
2020-05-21 14:02:17 (-0400) DEBUG    Parsed args.
2020-05-21 14:02:17 (-0400) DEBUG    Compiling...
2020-05-21 14:02:17 (-0400) DEBUG    Compiling...
2020-05-21 14:02:17 (-0400) INFO     Init program class.
2020-05-21 14:02:17 (-0400) INFO     Init program class.
2020-05-21 14:02:17 (-0400) DEBUG    itpt <textx:grammar.Program instance at 0x26dffa9c580>
2020-05-21 14:02:17 (-0400) DEBUG    itpt <textx:grammar.Program instance at 0x26dffa9c580>
2020-05-21 14:02:17 (-0400) DEBUG    _itpt <textx:grammar.Program instance at 0x26dffa9c580>
2020-05-21 14:02:17 (-0400) DEBUG    _itpt <textx:grammar.Program instance at 0x26dffa9c580>
2020-05-21 14:02:17 (-0400) DEBUG    _itpt_cont <textx:grammar.Container instance at 0x26dffaa49a0>
2020-05-21 14:02:17 (-0400) DEBUG    _itpt_cont <textx:grammar.Container instance at 0x26dffaa49a0>
2020-05-21 14:02:17 (-0400) DEBUG    _itpt_enti <textx:grammar.Command instance at 0x26dffaaea00>
2020-05-21 14:02:17 (-0400) DEBUG    _itpt_enti <textx:grammar.Command instance at 0x26dffaaea00>
2020-05-21 14:02:17 (-0400) DEBUG    _itpt_object <textx:grammar.Command instance at 0x26dffaaea00>
2020-05-21 14:02:17 (-0400) DEBUG    _itpt_object <textx:grammar.Command instance at 0x26dffaaea00>
2020-05-21 14:02:17 (-0400) DEBUG    _itpt_object <textx:grammar.Object instance at 0x26dffaaec10>
2020-05-21 14:02:17 (-0400) DEBUG    _itpt_object <textx:grammar.Object instance at 0x26dffaaec10>
2020-05-21 14:02:17 (-0400) DEBUG    _itpt_evokecall <textx:grammar.EvokeCall instance at 0x26dffaaedc0>
2020-05-21 14:02:17 (-0400) DEBUG    _itpt_evokecall <textx:grammar.EvokeCall instance at 0x26dffaaedc0>
2020-05-21 14:02:17 (-0400) DEBUG    _itpt_object <textx:grammar.EvokeCallObject instance at 0x26dffaaef70>
2020-05-21 14:02:17 (-0400) DEBUG    _itpt_object <textx:grammar.EvokeCallObject instance at 0x26dffaaef70>
2020-05-21 14:02:17 (-0400) DEBUG    _itpt_var <textx:grammar.Variable instance at 0x26dffaa00d0>
2020-05-21 14:02:17 (-0400) DEBUG    _itpt_var <textx:grammar.Variable instance at 0x26dffaa00d0>
2020-05-21 14:02:17 (-0400) DEBUG    _itpt_id <textx:grammar.Id instance at 0x26dffaa01f0>
2020-05-21 14:02:17 (-0400) DEBUG    _itpt_id <textx:grammar.Id instance at 0x26dffaa01f0>
2020-05-21 14:02:17 (-0400) DEBUG    _itpt_cont <textx:grammar.Container instance at 0x26dffaa0070>
2020-05-21 14:02:17 (-0400) DEBUG    _itpt_cont <textx:grammar.Container instance at 0x26dffaa0070>
2020-05-21 14:02:17 (-0400) DEBUG    _itpt_enti <textx:grammar.Command instance at 0x26dffaa0310>
2020-05-21 14:02:17 (-0400) DEBUG    _itpt_enti <textx:grammar.Command instance at 0x26dffaa0310>
2020-05-21 14:02:17 (-0400) DEBUG    _itpt_object <textx:grammar.Command instance at 0x26dffaa0310>
2020-05-21 14:02:17 (-0400) DEBUG    _itpt_object <textx:grammar.Command instance at 0x26dffaa0310>
2020-05-21 14:02:17 (-0400) DEBUG    _itpt_object <textx:grammar.Object instance at 0x26dffaa0430>
2020-05-21 14:02:17 (-0400) DEBUG    _itpt_object <textx:grammar.Object instance at 0x26dffaa0430>
2020-05-21 14:02:17 (-0400) DEBUG    _itpt_lpbk 'hello'
2020-05-21 14:02:17 (-0400) DEBUG    _itpt_lpbk 'hello'
2020-05-21 14:02:17 (-0400) WARNING  suffix of itpt enti 'hello'
2020-05-21 14:02:17 (-0400) WARNING  suffix of itpt enti 'hello'
2020-05-21 14:02:17 (-0400) WARNING  suffix of itpt enti {'type': 'EvokeCall', 'data': [['.', 'out'], ["'hello'"]]}
2020-05-21 14:02:17 (-0400) WARNING  suffix of itpt enti {'type': 'EvokeCall', 'data': [['.', 'out'], ["'hello'"]]}
2020-05-21 14:02:17 (-0400) DEBUG    _itpt_enti <textx:grammar.Command instance at 0x26dffaaeb80>
2020-05-21 14:02:17 (-0400) DEBUG    _itpt_enti <textx:grammar.Command instance at 0x26dffaaeb80>
2020-05-21 14:02:17 (-0400) DEBUG    _itpt_object <textx:grammar.Command instance at 0x26dffaaeb80>
2020-05-21 14:02:17 (-0400) DEBUG    _itpt_object <textx:grammar.Command instance at 0x26dffaaeb80>
2020-05-21 14:02:17 (-0400) DEBUG    _itpt_object <textx:grammar.Object instance at 0x26dffaa02b0>
2020-05-21 14:02:17 (-0400) DEBUG    _itpt_object <textx:grammar.Object instance at 0x26dffaa02b0>
2020-05-21 14:02:17 (-0400) DEBUG    _itpt_evokecall <textx:grammar.EvokeCall instance at 0x26dffaa0550>
2020-05-21 14:02:17 (-0400) DEBUG    _itpt_evokecall <textx:grammar.EvokeCall instance at 0x26dffaa0550>
2020-05-21 14:02:17 (-0400) DEBUG    _itpt_object <textx:grammar.EvokeCallObject instance at 0x26dffaa0670>
2020-05-21 14:02:17 (-0400) DEBUG    _itpt_object <textx:grammar.EvokeCallObject instance at 0x26dffaa0670>
2020-05-21 14:02:17 (-0400) DEBUG    _itpt_var <textx:grammar.Variable instance at 0x26dffaa0730>
2020-05-21 14:02:17 (-0400) DEBUG    _itpt_var <textx:grammar.Variable instance at 0x26dffaa0730>
2020-05-21 14:02:17 (-0400) DEBUG    _itpt_id <textx:grammar.Id instance at 0x26dffaa07c0>
2020-05-21 14:02:17 (-0400) DEBUG    _itpt_id <textx:grammar.Id instance at 0x26dffaa07c0>
2020-05-21 14:02:17 (-0400) DEBUG    _itpt_cont <textx:grammar.Container instance at 0x26dffaaed30>
2020-05-21 14:02:17 (-0400) DEBUG    _itpt_cont <textx:grammar.Container instance at 0x26dffaaed30>
2020-05-21 14:02:17 (-0400) DEBUG    _itpt_enti <textx:grammar.Command instance at 0x26dffaa0880>
2020-05-21 14:02:17 (-0400) DEBUG    _itpt_enti <textx:grammar.Command instance at 0x26dffaa0880>
2020-05-21 14:02:17 (-0400) DEBUG    _itpt_object <textx:grammar.Command instance at 0x26dffaa0880>
2020-05-21 14:02:17 (-0400) DEBUG    _itpt_object <textx:grammar.Command instance at 0x26dffaa0880>
2020-05-21 14:02:17 (-0400) DEBUG    _itpt_object <textx:grammar.Object instance at 0x26dffaa0910>
2020-05-21 14:02:17 (-0400) DEBUG    _itpt_object <textx:grammar.Object instance at 0x26dffaa0910>
2020-05-21 14:02:17 (-0400) DEBUG    _itpt_func <textx:grammar.Function instance at 0x26dffaa09a0>
2020-05-21 14:02:17 (-0400) DEBUG    _itpt_func <textx:grammar.Function instance at 0x26dffaa09a0>
2020-05-21 14:02:17 (-0400) DEBUG    _itpt_cont <textx:grammar.Container instance at 0x26dffaa0a30>
2020-05-21 14:02:17 (-0400) DEBUG    _itpt_cont <textx:grammar.Container instance at 0x26dffaa0a30>
2020-05-21 14:02:17 (-0400) DEBUG    _itpt_enti <textx:grammar.Command instance at 0x26dffaa0af0>
2020-05-21 14:02:17 (-0400) DEBUG    _itpt_enti <textx:grammar.Command instance at 0x26dffaa0af0>
2020-05-21 14:02:17 (-0400) DEBUG    _itpt_object <textx:grammar.Command instance at 0x26dffaa0af0>
2020-05-21 14:02:17 (-0400) DEBUG    _itpt_object <textx:grammar.Command instance at 0x26dffaa0af0>
2020-05-21 14:02:17 (-0400) DEBUG    _itpt_object <textx:grammar.Object instance at 0x26dffaa0b80>
2020-05-21 14:02:17 (-0400) DEBUG    _itpt_object <textx:grammar.Object instance at 0x26dffaa0b80>
2020-05-21 14:02:17 (-0400) DEBUG    _itpt_var <textx:grammar.Variable instance at 0x26dffaa0c10>
2020-05-21 14:02:17 (-0400) DEBUG    _itpt_var <textx:grammar.Variable instance at 0x26dffaa0c10>
2020-05-21 14:02:17 (-0400) DEBUG    _itpt_id <textx:grammar.Id instance at 0x26dffaa0c70>
2020-05-21 14:02:17 (-0400) DEBUG    _itpt_id <textx:grammar.Id instance at 0x26dffaa0c70>
2020-05-21 14:02:17 (-0400) WARNING  suffix of itpt enti ['', 'arg']
2020-05-21 14:02:17 (-0400) WARNING  suffix of itpt enti ['', 'arg']
2020-05-21 14:02:17 (-0400) DEBUG    _itpt_cont <textx:grammar.Container instance at 0x26dffaa0a90>
2020-05-21 14:02:17 (-0400) DEBUG    _itpt_cont <textx:grammar.Container instance at 0x26dffaa0a90>
2020-05-21 14:02:17 (-0400) DEBUG    _itpt_enti <textx:grammar.Command instance at 0x26dffaa0c40>
2020-05-21 14:02:17 (-0400) DEBUG    _itpt_enti <textx:grammar.Command instance at 0x26dffaa0c40>
2020-05-21 14:02:17 (-0400) DEBUG    _itpt_object <textx:grammar.Command instance at 0x26dffaa0c40>
2020-05-21 14:02:17 (-0400) DEBUG    _itpt_object <textx:grammar.Command instance at 0x26dffaa0c40>
2020-05-21 14:02:17 (-0400) DEBUG    _itpt_object <textx:grammar.Object instance at 0x26dffaa0d30>
2020-05-21 14:02:17 (-0400) DEBUG    _itpt_object <textx:grammar.Object instance at 0x26dffaa0d30>
2020-05-21 14:02:17 (-0400) DEBUG    _itpt_evokecall <textx:grammar.EvokeCall instance at 0x26dffaa0dc0>
2020-05-21 14:02:17 (-0400) DEBUG    _itpt_evokecall <textx:grammar.EvokeCall instance at 0x26dffaa0dc0>
2020-05-21 14:02:17 (-0400) DEBUG    _itpt_object <textx:grammar.EvokeCallObject instance at 0x26dffaa0e50>
2020-05-21 14:02:17 (-0400) DEBUG    _itpt_object <textx:grammar.EvokeCallObject instance at 0x26dffaa0e50>
2020-05-21 14:02:17 (-0400) DEBUG    _itpt_var <textx:grammar.Variable instance at 0x26dffaa0ee0>
2020-05-21 14:02:17 (-0400) DEBUG    _itpt_var <textx:grammar.Variable instance at 0x26dffaa0ee0>
2020-05-21 14:02:17 (-0400) DEBUG    _itpt_id <textx:grammar.Id instance at 0x26dffaa0f40>
2020-05-21 14:02:17 (-0400) DEBUG    _itpt_id <textx:grammar.Id instance at 0x26dffaa0f40>
2020-05-21 14:02:17 (-0400) DEBUG    _itpt_cont <textx:grammar.Container instance at 0x26dffaa0eb0>
2020-05-21 14:02:17 (-0400) DEBUG    _itpt_cont <textx:grammar.Container instance at 0x26dffaa0eb0>
2020-05-21 14:02:17 (-0400) DEBUG    _itpt_enti <textx:grammar.Command instance at 0x26dffaa2040>
2020-05-21 14:02:17 (-0400) DEBUG    _itpt_enti <textx:grammar.Command instance at 0x26dffaa2040>
2020-05-21 14:02:17 (-0400) DEBUG    _itpt_object <textx:grammar.Command instance at 0x26dffaa2040>
2020-05-21 14:02:17 (-0400) DEBUG    _itpt_object <textx:grammar.Command instance at 0x26dffaa2040>
2020-05-21 14:02:17 (-0400) DEBUG    _itpt_object <textx:grammar.Object instance at 0x26dffaa20d0>
2020-05-21 14:02:17 (-0400) DEBUG    _itpt_object <textx:grammar.Object instance at 0x26dffaa20d0>
2020-05-21 14:02:17 (-0400) DEBUG    _itpt_var <textx:grammar.Variable instance at 0x26dffaa2160>
2020-05-21 14:02:17 (-0400) DEBUG    _itpt_var <textx:grammar.Variable instance at 0x26dffaa2160>
2020-05-21 14:02:17 (-0400) DEBUG    _itpt_id <textx:grammar.Id instance at 0x26dffaa21c0>
2020-05-21 14:02:17 (-0400) DEBUG    _itpt_id <textx:grammar.Id instance at 0x26dffaa21c0>
2020-05-21 14:02:17 (-0400) WARNING  suffix of itpt enti ['', 'arg']
2020-05-21 14:02:17 (-0400) WARNING  suffix of itpt enti ['', 'arg']
2020-05-21 14:02:17 (-0400) WARNING  suffix of itpt enti {'type': 'EvokeCall', 'data': [['.', 'out'], [['', 'arg']]]}
2020-05-21 14:02:17 (-0400) WARNING  suffix of itpt enti {'type': 'EvokeCall', 'data': [['.', 'out'], [['', 'arg']]]}
2020-05-21 14:02:17 (-0400) WARNING  suffix of itpt enti [[['', 'arg']], [{'type': 'EvokeCall', 'data': [['.', 'out'], [['', 'arg']]]}]]
2020-05-21 14:02:17 (-0400) WARNING  suffix of itpt enti [[['', 'arg']], [{'type': 'EvokeCall', 'data': [['.', 'out'], [['', 'arg']]]}]]
2020-05-21 14:02:17 (-0400) WARNING  suffix of itpt enti {'type': 'EvokeCall', 'data': [['.', 'list'], [[[['', 'arg']], [{'type': 'EvokeCall', 'data': [['.', 'out'], [['', 'arg']]]}]]]]}
2020-05-21 14:02:17 (-0400) WARNING  suffix of itpt enti {'type': 'EvokeCall', 'data': [['.', 'list'], [[[['', 'arg']], [{'type': 'EvokeCall', 'data': [['.', 'out'], [['', 'arg']]]}]]]]}
2020-05-21 14:02:17 (-0400) DEBUG    _itpt_object <textx:grammar.DotCommand instance at 0x26dffaa0820>
2020-05-21 14:02:17 (-0400) DEBUG    _itpt_object <textx:grammar.DotCommand instance at 0x26dffaa0820>
2020-05-21 14:02:17 (-0400) DEBUG    _itpt_object <textx:grammar.Object instance at 0x26dffaa0970>
2020-05-21 14:02:17 (-0400) DEBUG    _itpt_object <textx:grammar.Object instance at 0x26dffaa0970>
2020-05-21 14:02:17 (-0400) DEBUG    _itpt_evokecall <textx:grammar.EvokeCall instance at 0x26dffaa0be0>
2020-05-21 14:02:17 (-0400) DEBUG    _itpt_evokecall <textx:grammar.EvokeCall instance at 0x26dffaa0be0>
2020-05-21 14:02:17 (-0400) DEBUG    _itpt_object <textx:grammar.EvokeCallObject instance at 0x26dffaa0e20>
2020-05-21 14:02:17 (-0400) DEBUG    _itpt_object <textx:grammar.EvokeCallObject instance at 0x26dffaa0e20>
2020-05-21 14:02:17 (-0400) DEBUG    _itpt_var <textx:grammar.Variable instance at 0x26dffaa0fd0>
2020-05-21 14:02:17 (-0400) DEBUG    _itpt_var <textx:grammar.Variable instance at 0x26dffaa0fd0>
2020-05-21 14:02:17 (-0400) DEBUG    _itpt_id <textx:grammar.Id instance at 0x26dffaa2130>
2020-05-21 14:02:17 (-0400) DEBUG    _itpt_id <textx:grammar.Id instance at 0x26dffaa2130>
2020-05-21 14:02:17 (-0400) DEBUG    _itpt_cont <textx:grammar.Container instance at 0x26dffaa04f0>
2020-05-21 14:02:17 (-0400) DEBUG    _itpt_cont <textx:grammar.Container instance at 0x26dffaa04f0>
2020-05-21 14:02:17 (-0400) DEBUG    _itpt_enti <textx:grammar.Command instance at 0x26dffaa2280>
2020-05-21 14:02:17 (-0400) DEBUG    _itpt_enti <textx:grammar.Command instance at 0x26dffaa2280>
2020-05-21 14:02:17 (-0400) DEBUG    _itpt_object <textx:grammar.Command instance at 0x26dffaa2280>
2020-05-21 14:02:17 (-0400) DEBUG    _itpt_object <textx:grammar.Command instance at 0x26dffaa2280>
2020-05-21 14:02:17 (-0400) DEBUG    _itpt_object <textx:grammar.Object instance at 0x26dffaa2310>
2020-05-21 14:02:17 (-0400) DEBUG    _itpt_object <textx:grammar.Object instance at 0x26dffaa2310>
2020-05-21 14:02:17 (-0400) DEBUG    _itpt_var <textx:grammar.Variable instance at 0x26dffaa23a0>
2020-05-21 14:02:17 (-0400) DEBUG    _itpt_var <textx:grammar.Variable instance at 0x26dffaa23a0>
2020-05-21 14:02:17 (-0400) DEBUG    _itpt_id <textx:grammar.Id instance at 0x26dffaa2400>
2020-05-21 14:02:17 (-0400) DEBUG    _itpt_id <textx:grammar.Id instance at 0x26dffaa2400>
2020-05-21 14:02:17 (-0400) WARNING  suffix of itpt enti ['', 'var']
2020-05-21 14:02:17 (-0400) WARNING  suffix of itpt enti ['', 'var']
2020-05-21 14:02:17 (-0400) INFO     Init program class.
2020-05-21 14:02:17 (-0400) INFO     Init program class.
2020-05-21 14:02:17 (-0400) DEBUG    commands is [{'type': 'EvokeCall', 'data': [['.', 'out'], ["'hello'"]]}, {'type': 'EvokeCall', 'data': [['.', 'list'], [[[['', 'arg']], [{'type': 'EvokeCall', 'data': [['.', 'out'], [['', 'arg']]]}]]]], 'suffix': {'type': 'EvokeCall', 'data': [['', 'put'], [['', 'var']]]}}]
2020-05-21 14:02:17 (-0400) DEBUG    commands is [{'type': 'EvokeCall', 'data': [['.', 'out'], ["'hello'"]]}, {'type': 'EvokeCall', 'data': [['.', 'list'], [[[['', 'arg']], [{'type': 'EvokeCall', 'data': [['.', 'out'], [['', 'arg']]]}]]]], 'suffix': {'type': 'EvokeCall', 'data': [['', 'put'], [['', 'var']]]}}]
2020-05-21 14:02:17 (-0400) DEBUG    Compiled.
2020-05-21 14:02:17 (-0400) DEBUG    Compiled.
2020-05-21 14:02:17 (-0400) INFO     Compilation successful. Use "go run" or "go build" to run/compile the program.
2020-05-21 14:02:17 (-0400) INFO     Compilation successful. Use "go run" or "go build" to run/compile the program.
