digraph arpeggio_graph {
2149370398944 [label="textx_model=Sequence"];
2149370398944->2149370398992 [label="1"]

2149370398992 [label="ZeroOrMore"];
2149370398992->2149370399472 [label="1"]

2149370399472 [label="import_or_reference_stm=OrderedChoice"];
2149370399472->2149370399712 [label="1"]

2149370399712 [label="import_stm=Sequence"];
2149370399712->2149370399856 [label="1"]

2149370399856 [label="StrMatch(import)"];
2149370399712->2149370400048 [label="2"]

2149370400048 [label="grammar_to_import=RegExMatch((\\w|\\.)+)"];
2149370399472->2149370399904 [label="2"]

2149370399904 [label="reference_stm=Sequence"];
2149370399904->2149370400480 [label="1"]

2149370400480 [label="StrMatch(reference)"];
2149370399904->2149370400576 [label="2"]

2149370400576 [label="language_name=RegExMatch((\\w|-)+)"];
2149370399904->2149370399808 [label="3"]

2149370399808 [label="Optional"];
2149370399808->2149370400432 [label="1"]

2149370400432 [label="language_alias=Sequence"];
2149370400432->2149370400000 [label="1"]

2149370400000 [label="StrMatch(as)"];
2149370400432->2149370400192 [label="2"]

2149370400192 [label="ident=RegExMatch(\\w+)"];
2149370398944->2149370398896 [label="2"]

2149370398896 [label="ZeroOrMore"];
2149370398896->2149370399616 [label="1"]

2149370399616 [label="textx_rule=Sequence"];
2149370399616->2149370400336 [label="1"]

2149370400336 [label="rule_name=RegExMatch(\\w+)"];
2149370399616->2149370399568 [label="2"]

2149370399568 [label="Optional"];
2149370399568->2149370400720 [label="1"]

2149370400720 [label="rule_params=Sequence"];
2149370400720->2149370400672 [label="1"]

2149370400672 [label="StrMatch([)"];
2149370400720->2149370442032 [label="2"]

2149370442032 [label="rule_param=Sequence"];
2149370442032->2149370441936 [label="1"]

2149370441936 [label="param_name=RegExMatch(\\w+)"];
2149370442032->2149370400528 [label="2"]

2149370400528 [label="Optional"];
2149370400528->2149370441792 [label="1"]

2149370441792 [label="Sequence"];
2149370441792->2149370442080 [label="1"]

2149370442080 [label="StrMatch(=)"];
2149370441792->2149370442320 [label="2"]

2149370442320 [label="string_value=OrderedChoice"];
2149370442320->2149370442224 [label="1"]

2149370442224 [label="RegExMatch('((\\\\')|[^'])*')"];
2149370442320->2149370442272 [label="2"]

2149370442272 [label="RegExMatch(\"((\\\\\")|[^\"])*\")"];
2149370400720->2149370400384 [label="3"]

2149370400384 [label="ZeroOrMore"];
2149370400384->2149370400144 [label="1"]

2149370400144 [label="Sequence"];
2149370400144->2149370441840 [label="1"]

2149370441840 [label="StrMatch(,)"];
2149370400144->2149370442032 [label="2"]

2149370400720->2149370400096 [label="4"]

2149370400096 [label="StrMatch(])"];
2149370399616->2149370399952 [label="3"]

2149370399952 [label="StrMatch(:)"];
2149370399616->2149370442128 [label="4"]

2149370442128 [label="textx_rule_body=Sequence"];
2149370442128->2149370443088 [label="1"]

2149370443088 [label="sequence=OneOrMore"];
2149370443088->2149370442848 [label="1"]

2149370442848 [label="repeatable_expr=Sequence"];
2149370442848->2149370443232 [label="1"]

2149370443232 [label="expression=OrderedChoice"];
2149370443232->2149370442704 [label="1"]

2149370442704 [label="assignment=Sequence"];
2149370442704->2149370443376 [label="1"]

2149370443376 [label="attribute=RegExMatch(\\w+)"];
2149370442704->2149370443424 [label="2"]

2149370443424 [label="assignment_op=OrderedChoice"];
2149370443424->2149370443568 [label="1"]

2149370443568 [label="StrMatch(=)"];
2149370443424->2149370443616 [label="2"]

2149370443616 [label="StrMatch(*=)"];
2149370443424->2149370443664 [label="3"]

2149370443664 [label="StrMatch(+=)"];
2149370443424->2149370443712 [label="4"]

2149370443712 [label="StrMatch(?=)"];
2149370442704->2149370443760 [label="3"]

2149370443760 [label="assignment_rhs=Sequence"];
2149370443760->2149370443856 [label="1"]

2149370443856 [label="OrderedChoice"];
2149370443856->2149370444096 [label="1"]

2149370444096 [label="simple_match=OrderedChoice"];
2149370444096->2149370444432 [label="1"]

2149370444432 [label="str_match=OrderedChoice"];
2149370444432->2149370444336 [label="1"]

2149370444336 [label="RegExMatch('((\\\\')|[^'])*')"];
2149370444432->2149370444384 [label="2"]

2149370444384 [label="RegExMatch(\"((\\\\\")|[^\"])*\")"];
2149370444096->2149370444528 [label="2"]

2149370444528 [label="re_match=RegExMatch(/((?:(?:\\\\/)|[^/])*)/)"];
2149370443856->2149370330944 [label="2"]

2149370330944 [label="reference=OrderedChoice"];
2149370330944->2149370330656 [label="1"]

2149370330656 [label="rule_ref=RegExMatch(\\w+)"];
2149370330944->2149370330704 [label="2"]

2149370330704 [label="obj_ref=Sequence"];
2149370330704->2149370444048 [label="1"]

2149370444048 [label="StrMatch([)"];
2149370330704->2149370444288 [label="2"]

2149370444288 [label="class_name=RegExMatch(\\w+(\\.\\w+)?)"];
2149370330704->2149370329888 [label="3"]

2149370329888 [label="Optional"];
2149370329888->2149370444192 [label="1"]

2149370444192 [label="Sequence"];
2149370444192->2149370445056 [label="1"]

2149370445056 [label="StrMatch(|)"];
2149370444192->2149370444912 [label="2"]

2149370444912 [label="obj_ref_rule=RegExMatch(\\w+)"];
2149370330704->2149370445008 [label="4"]

2149370445008 [label="StrMatch(])"];
2149370443760->2149370443520 [label="2"]

2149370443520 [label="Optional"];
2149370443520->2149370330752 [label="1"]

2149370330752 [label="repeat_modifiers=Sequence"];
2149370330752->2149370443952 [label="1"]

2149370443952 [label="StrMatch([)"];
2149370330752->2149370330464 [label="2"]

2149370330464 [label="OneOrMore"];
2149370330464->2149370444000 [label="1"]

2149370444000 [label="OrderedChoice"];
2149370444000->2149370444096 [label="1"]

2149370444000->2149370444720 [label="2"]

2149370444720 [label="StrMatch(eolterm)"];
2149370330752->2149370444672 [label="3"]

2149370444672 [label="StrMatch(])"];
2149370443232->2149370330416 [label="2"]

2149370330416 [label="Sequence"];
2149370330416->2149370443184 [label="1"]

2149370443184 [label="Optional"];
2149370443184->2149370442752 [label="1"]

2149370442752 [label="syntactic_predicate=OrderedChoice"];
2149370442752->2149370443280 [label="1"]

2149370443280 [label="StrMatch(!)"];
2149370442752->2149370443328 [label="2"]

2149370443328 [label="StrMatch(&)"];
2149370330416->2149370330512 [label="2"]

2149370330512 [label="OrderedChoice"];
2149370330512->2149370444096 [label="1"]

2149370330512->2149370330656 [label="2"]

2149370330512->2149370444960 [label="3"]

2149370444960 [label="bracketed_choice=Sequence"];
2149370444960->2149370445296 [label="1"]

2149370445296 [label="StrMatch(()"];
2149370444960->2149370444624 [label="2"]

2149370444624 [label="choice=Sequence"];
2149370444624->2149370443088 [label="1"]

2149370444624->2149370444576 [label="2"]

2149370444576 [label="ZeroOrMore"];
2149370444576->2149370445152 [label="1"]

2149370445152 [label="Sequence"];
2149370445152->2149370444768 [label="1"]

2149370444768 [label="StrMatch(|)"];
2149370445152->2149370443088 [label="2"]

2149370444960->2149370445248 [label="3"]

2149370445248 [label="StrMatch())"];
2149370442848->2149370443040 [label="2"]

2149370443040 [label="Optional"];
2149370443040->2149370442800 [label="1"]

2149370442800 [label="repeat_operator=Sequence"];
2149370442800->2149370442656 [label="1"]

2149370442656 [label="OrderedChoice"];
2149370442656->2149370444864 [label="1"]

2149370444864 [label="StrMatch(*)"];
2149370442656->2149370445200 [label="2"]

2149370445200 [label="StrMatch(?)"];
2149370442656->2149370445104 [label="3"]

2149370445104 [label="StrMatch(+)"];
2149370442656->2149370445392 [label="4"]

2149370445392 [label="StrMatch(#)"];
2149370442800->2149370442560 [label="2"]

2149370442560 [label="Optional"];
2149370442560->2149370330752 [label="1"]

2149370442848->2149370442992 [label="3"]

2149370442992 [label="Optional"];
2149370442992->2149370330800 [label="1"]

2149370330800 [label="StrMatch(-)"];
2149370442128->2149370441984 [label="2"]

2149370441984 [label="ZeroOrMore"];
2149370441984->2149370442512 [label="1"]

2149370442512 [label="Sequence"];
2149370442512->2149370442896 [label="1"]

2149370442896 [label="StrMatch(|)"];
2149370442512->2149370443088 [label="2"]

2149370399616->2149370400288 [label="5"]

2149370400288 [label="StrMatch(;)"];
2149370398944->2149370399664 [label="3"]

2149370399664 [label="EOF"];
}