digraph arpeggio_graph {
2149370592832 [label="textx_model [0]"];
2149370592832->2149370419008 [label="1"]

2149370419008 [label="textx_rule [0]"];
2149370419008->2149370007216 [label="1"]

2149370007216 [label="rule_name 'Program' [0]"];
2149370419008->2149370097552 [label="2"]

2149370097552 [label=" ':' [7]"];
2149370419008->2149370418880 [label="3"]

2149370418880 [label="textx_rule_body [11]"];
2149370418880->2149370418752 [label="1"]

2149370418752 [label="sequence [11]"];
2149370418752->2149370418624 [label="1"]

2149370418624 [label="repeatable_expr [11]"];
2149370418624->2149370418496 [label="1"]

2149370418496 [label="expression [11]"];
2149370418496->2149370418112 [label="1"]

2149370418112 [label="assignment [11]"];
2149370418112->2149370495152 [label="1"]

2149370495152 [label="attribute 'containers' [11]"];
2149370418112->2149370417984 [label="2"]

2149370417984 [label="assignment_op [22]"];
2149370417984->2149370495264 [label="1"]

2149370495264 [label=" '*=' [22]"];
2149370418112->2149370418368 [label="3"]

2149370418368 [label="assignment_rhs [25]"];
2149370418368->2149370418240 [label="1"]

2149370418240 [label="reference [25]"];
2149370418240->2149370495488 [label="1"]

2149370495488 [label="rule_ref 'Container' [25]"];
2149370419008->2149370495600 [label="4"]

2149370495600 [label=" ';' [35]"];
2149370592832->2149370536000 [label="2"]

2149370536000 [label="textx_rule [38]"];
2149370536000->2149370495824 [label="1"]

2149370495824 [label="rule_name 'Container' [38]"];
2149370536000->2149370495936 [label="2"]

2149370495936 [label=" ':' [47]"];
2149370536000->2149370421056 [label="3"]

2149370421056 [label="textx_rule_body [51]"];
2149370421056->2149370420928 [label="1"]

2149370420928 [label="sequence [51]"];
2149370420928->2149370419520 [label="1"]

2149370419520 [label="repeatable_expr [51]"];
2149370419520->2149370419392 [label="1"]

2149370419392 [label="expression [51]"];
2149370419392->2149370419264 [label="1"]

2149370419264 [label="simple_match [51]"];
2149370419264->2149370419136 [label="1"]

2149370419136 [label="str_match [51]"];
2149370419136->2149370496048 [label="1"]

2149370496048 [label=" ''('' [51]"];
2149370420928->2149370420288 [label="2"]

2149370420288 [label="repeatable_expr [55]"];
2149370420288->2149370420160 [label="1"]

2149370420160 [label="expression [55]"];
2149370420160->2149370420032 [label="1"]

2149370420032 [label="assignment [55]"];
2149370420032->2149370496272 [label="1"]

2149370496272 [label="attribute 'entities' [55]"];
2149370420032->2149370419648 [label="2"]

2149370419648 [label="assignment_op [64]"];
2149370419648->2149370496384 [label="1"]

2149370496384 [label=" '*=' [64]"];
2149370420032->2149370419904 [label="3"]

2149370419904 [label="assignment_rhs [67]"];
2149370419904->2149370419776 [label="1"]

2149370419776 [label="reference [67]"];
2149370419776->2149370496608 [label="1"]

2149370496608 [label="rule_ref 'Command' [67]"];
2149370420928->2149370420800 [label="3"]

2149370420800 [label="repeatable_expr [75]"];
2149370420800->2149370420672 [label="1"]

2149370420672 [label="expression [75]"];
2149370420672->2149370420544 [label="1"]

2149370420544 [label="simple_match [75]"];
2149370420544->2149370420416 [label="1"]

2149370420416 [label="str_match [75]"];
2149370420416->2149370496720 [label="1"]

2149370496720 [label=" '')'' [75]"];
2149370536000->2149370496832 [label="4"]

2149370496832 [label=" ';' [79]"];
2149370592832->2149370538432 [label="3"]

2149370538432 [label="textx_rule [82]"];
2149370538432->2149370497056 [label="1"]

2149370497056 [label="rule_name 'Command' [82]"];
2149370538432->2149370497168 [label="2"]

2149370497168 [label=" ':' [89]"];
2149370538432->2149370538304 [label="3"]

2149370538304 [label="textx_rule_body [93]"];
2149370538304->2149370538176 [label="1"]

2149370538176 [label="sequence [93]"];
2149370538176->2149370536768 [label="1"]

2149370536768 [label="repeatable_expr [93]"];
2149370536768->2149370536640 [label="1"]

2149370536640 [label="expression [93]"];
2149370536640->2149370536512 [label="1"]

2149370536512 [label="assignment [93]"];
2149370536512->2149370497392 [label="1"]

2149370497392 [label="attribute 'obj' [93]"];
2149370536512->2149370536128 [label="2"]

2149370536128 [label="assignment_op [97]"];
2149370536128->2149370497504 [label="1"]

2149370497504 [label=" '=' [97]"];
2149370536512->2149370536384 [label="3"]

2149370536384 [label="assignment_rhs [99]"];
2149370536384->2149370536256 [label="1"]

2149370536256 [label="reference [99]"];
2149370536256->2149370497728 [label="1"]

2149370497728 [label="rule_ref 'Object' [99]"];
2149370538176->2149370537536 [label="2"]

2149370537536 [label="repeatable_expr [106]"];
2149370537536->2149370537408 [label="1"]

2149370537408 [label="expression [106]"];
2149370537408->2149370537280 [label="1"]

2149370537280 [label="assignment [106]"];
2149370537280->2149370497952 [label="1"]

2149370497952 [label="attribute 'ext' [106]"];
2149370537280->2149370536896 [label="2"]

2149370536896 [label="assignment_op [110]"];
2149370536896->2149370498064 [label="1"]

2149370498064 [label=" '*=' [110]"];
2149370537280->2149370537152 [label="3"]

2149370537152 [label="assignment_rhs [113]"];
2149370537152->2149370537024 [label="1"]

2149370537024 [label="reference [113]"];
2149370537024->2149370498288 [label="1"]

2149370498288 [label="rule_ref 'DotCommand' [113]"];
2149370538176->2149370538048 [label="3"]

2149370538048 [label="repeatable_expr [124]"];
2149370538048->2149370537920 [label="1"]

2149370537920 [label="expression [124]"];
2149370537920->2149370537792 [label="1"]

2149370537792 [label="simple_match [124]"];
2149370537792->2149370537664 [label="1"]

2149370537664 [label="str_match [124]"];
2149370537664->2149370498400 [label="1"]

2149370498400 [label=" '','' [124]"];
2149370538432->2149370498512 [label="4"]

2149370498512 [label=" ';' [128]"];
2149370592832->2149370523840 [label="4"]

2149370523840 [label="textx_rule [131]"];
2149370523840->2149370498736 [label="1"]

2149370498736 [label="rule_name 'DotCommand' [131]"];
2149370523840->2149370498848 [label="2"]

2149370498848 [label=" ':' [141]"];
2149370523840->2149370523712 [label="3"]

2149370523712 [label="textx_rule_body [145]"];
2149370523712->2149370539840 [label="1"]

2149370539840 [label="sequence [145]"];
2149370539840->2149370538944 [label="1"]

2149370538944 [label="repeatable_expr [145]"];
2149370538944->2149370538816 [label="1"]

2149370538816 [label="expression [145]"];
2149370538816->2149370538688 [label="1"]

2149370538688 [label="simple_match [145]"];
2149370538688->2149370538560 [label="1"]

2149370538560 [label="str_match [145]"];
2149370538560->2149370498960 [label="1"]

2149370498960 [label=" ''.'' [145]"];
2149370539840->2149370539712 [label="2"]

2149370539712 [label="repeatable_expr [149]"];
2149370539712->2149370539584 [label="1"]

2149370539584 [label="expression [149]"];
2149370539584->2149370539456 [label="1"]

2149370539456 [label="assignment [149]"];
2149370539456->2149370540208 [label="1"]

2149370540208 [label="attribute 'obj' [149]"];
2149370539456->2149370539072 [label="2"]

2149370539072 [label="assignment_op [153]"];
2149370539072->2149370540320 [label="1"]

2149370540320 [label=" '=' [153]"];
2149370539456->2149370539328 [label="3"]

2149370539328 [label="assignment_rhs [155]"];
2149370539328->2149370539200 [label="1"]

2149370539200 [label="reference [155]"];
2149370539200->2149370540544 [label="1"]

2149370540544 [label="rule_ref 'Object' [155]"];
2149370523840->2149370540656 [label="4"]

2149370540656 [label=" ';' [162]"];
2149370592832->2149370525120 [label="5"]

2149370525120 [label="textx_rule [165]"];
2149370525120->2149370540880 [label="1"]

2149370540880 [label="rule_name 'Id' [165]"];
2149370525120->2149370540992 [label="2"]

2149370540992 [label=" ':' [167]"];
2149370525120->2149370524992 [label="3"]

2149370524992 [label="textx_rule_body [171]"];
2149370524992->2149370524864 [label="1"]

2149370524864 [label="sequence [171]"];
2149370524864->2149370524736 [label="1"]

2149370524736 [label="repeatable_expr [171]"];
2149370524736->2149370524608 [label="1"]

2149370524608 [label="expression [171]"];
2149370524608->2149370524480 [label="1"]

2149370524480 [label="assignment [171]"];
2149370524480->2149370541216 [label="1"]

2149370541216 [label="attribute 'id' [171]"];
2149370524480->2149370523968 [label="2"]

2149370523968 [label="assignment_op [174]"];
2149370523968->2149370541328 [label="1"]

2149370541328 [label=" '=' [174]"];
2149370524480->2149370524352 [label="3"]

2149370524352 [label="assignment_rhs [176]"];
2149370524352->2149370524224 [label="1"]

2149370524224 [label="simple_match [176]"];
2149370524224->2149370541440 [label="1"]

2149370541440 [label="re_match '/[^.,()!'\\\"]*/' [176]"];
2149370525120->2149370541552 [label="4"]

2149370541552 [label=" ';' [191]"];
2149370592832->2149370487872 [label="6"]

2149370487872 [label="textx_rule [194]"];
2149370487872->2149370541776 [label="1"]

2149370541776 [label="rule_name 'Variable' [194]"];
2149370487872->2149370541888 [label="2"]

2149370541888 [label=" ':' [202]"];
2149370487872->2149370487744 [label="3"]

2149370487744 [label="textx_rule_body [206]"];
2149370487744->2149370487616 [label="1"]

2149370487616 [label="sequence [206]"];
2149370487616->2149370526784 [label="1"]

2149370526784 [label="repeatable_expr [206]"];
2149370526784->2149370526528 [label="1"]

2149370526528 [label="expression [206]"];
2149370526528->2149370526400 [label="1"]

2149370526400 [label="bracketed_choice [206]"];
2149370526400->2149370542000 [label="1"]

2149370542000 [label=" '(' [206]"];
2149370526400->2149370526272 [label="2"]

2149370526272 [label="choice [208]"];
2149370526272->2149370526144 [label="1"]

2149370526144 [label="sequence [208]"];
2149370526144->2149370526016 [label="1"]

2149370526016 [label="repeatable_expr [208]"];
2149370526016->2149370525888 [label="1"]

2149370525888 [label="expression [208]"];
2149370525888->2149370525760 [label="1"]

2149370525760 [label="assignment [208]"];
2149370525760->2149370542224 [label="1"]

2149370542224 [label="attribute 'dot' [208]"];
2149370525760->2149370525248 [label="2"]

2149370525248 [label="assignment_op [212]"];
2149370525248->2149370542336 [label="1"]

2149370542336 [label=" '=' [212]"];
2149370525760->2149370525632 [label="3"]

2149370525632 [label="assignment_rhs [214]"];
2149370525632->2149370525504 [label="1"]

2149370525504 [label="simple_match [214]"];
2149370525504->2149370525376 [label="1"]

2149370525376 [label="str_match [214]"];
2149370525376->2149370542448 [label="1"]

2149370542448 [label=" ''.'' [214]"];
2149370526400->2149370542560 [label="3"]

2149370542560 [label=" ')' [218]"];
2149370526784->2149370526656 [label="2"]

2149370526656 [label="repeat_operator [219]"];
2149370526656->2149370542672 [label="1"]

2149370542672 [label=" '?' [219]"];
2149370487616->2149370527552 [label="2"]

2149370527552 [label="repeatable_expr [221]"];
2149370527552->2149370527424 [label="1"]

2149370527424 [label="expression [221]"];
2149370527424->2149370527296 [label="1"]

2149370527296 [label="assignment [221]"];
2149370527296->2149370542896 [label="1"]

2149370542896 [label="attribute 'root' [221]"];
2149370527296->2149370526912 [label="2"]

2149370526912 [label="assignment_op [226]"];
2149370526912->2149370543008 [label="1"]

2149370543008 [label=" '=' [226]"];
2149370527296->2149370527168 [label="3"]

2149370527168 [label="assignment_rhs [228]"];
2149370527168->2149370527040 [label="1"]

2149370527040 [label="reference [228]"];
2149370527040->2149370543232 [label="1"]

2149370543232 [label="rule_ref 'Id' [228]"];
2149370487616->2149370487488 [label="3"]

2149370487488 [label="repeatable_expr [231]"];
2149370487488->2149370487360 [label="1"]

2149370487360 [label="expression [231]"];
2149370487360->2149370487232 [label="1"]

2149370487232 [label="assignment [231]"];
2149370487232->2149370543456 [label="1"]

2149370543456 [label="attribute 'ext' [231]"];
2149370487232->2149370486848 [label="2"]

2149370486848 [label="assignment_op [235]"];
2149370486848->2149370543568 [label="1"]

2149370543568 [label=" '*=' [235]"];
2149370487232->2149370487104 [label="3"]

2149370487104 [label="assignment_rhs [238]"];
2149370487104->2149370486976 [label="1"]

2149370486976 [label="reference [238]"];
2149370486976->2149370543792 [label="1"]

2149370543792 [label="rule_ref 'VariableMethod' [238]"];
2149370487872->2149370543904 [label="4"]

2149370543904 [label=" ';' [253]"];
2149370592832->2149370489536 [label="7"]

2149370489536 [label="textx_rule [256]"];
2149370489536->2149370511424 [label="1"]

2149370511424 [label="rule_name 'VariableMethod' [256]"];
2149370489536->2149370511536 [label="2"]

2149370511536 [label=" ':' [270]"];
2149370489536->2149370489408 [label="3"]

2149370489408 [label="textx_rule_body [274]"];
2149370489408->2149370489280 [label="1"]

2149370489280 [label="sequence [274]"];
2149370489280->2149370488384 [label="1"]

2149370488384 [label="repeatable_expr [274]"];
2149370488384->2149370488256 [label="1"]

2149370488256 [label="expression [274]"];
2149370488256->2149370488128 [label="1"]

2149370488128 [label="simple_match [274]"];
2149370488128->2149370488000 [label="1"]

2149370488000 [label="str_match [274]"];
2149370488000->2149370511648 [label="1"]

2149370511648 [label=" ''.'' [274]"];
2149370489280->2149370489152 [label="2"]

2149370489152 [label="repeatable_expr [278]"];
2149370489152->2149370489024 [label="1"]

2149370489024 [label="expression [278]"];
2149370489024->2149370488896 [label="1"]

2149370488896 [label="assignment [278]"];
2149370488896->2149370511872 [label="1"]

2149370511872 [label="attribute 'id' [278]"];
2149370488896->2149370488512 [label="2"]

2149370488512 [label="assignment_op [281]"];
2149370488512->2149370511984 [label="1"]

2149370511984 [label=" '=' [281]"];
2149370488896->2149370488768 [label="3"]

2149370488768 [label="assignment_rhs [283]"];
2149370488768->2149370488640 [label="1"]

2149370488640 [label="reference [283]"];
2149370488640->2149370512208 [label="1"]

2149370512208 [label="rule_ref 'Id' [283]"];
2149370489536->2149370512320 [label="4"]

2149370512320 [label=" ';' [286]"];
2149370592832->2149370504384 [label="8"]

2149370504384 [label="textx_rule [289]"];
2149370504384->2149370512544 [label="1"]

2149370512544 [label="rule_name 'Function' [289]"];
2149370504384->2149370512656 [label="2"]

2149370512656 [label=" ':' [297]"];
2149370504384->2149370504256 [label="3"]

2149370504256 [label="textx_rule_body [301]"];
2149370504256->2149370504128 [label="1"]

2149370504128 [label="sequence [301]"];
2149370504128->2149370490304 [label="1"]

2149370490304 [label="repeatable_expr [301]"];
2149370490304->2149370490176 [label="1"]

2149370490176 [label="expression [301]"];
2149370490176->2149370490048 [label="1"]

2149370490048 [label="assignment [301]"];
2149370490048->2149370512880 [label="1"]

2149370512880 [label="attribute 'args' [301]"];
2149370490048->2149370489664 [label="2"]

2149370489664 [label="assignment_op [306]"];
2149370489664->2149370512992 [label="1"]

2149370512992 [label=" '=' [306]"];
2149370490048->2149370489920 [label="3"]

2149370489920 [label="assignment_rhs [308]"];
2149370489920->2149370489792 [label="1"]

2149370489792 [label="reference [308]"];
2149370489792->2149370513216 [label="1"]

2149370513216 [label="rule_ref 'Container' [308]"];
2149370504128->2149370503232 [label="2"]

2149370503232 [label="repeatable_expr [318]"];
2149370503232->2149370490688 [label="1"]

2149370490688 [label="expression [318]"];
2149370490688->2149370490560 [label="1"]

2149370490560 [label="simple_match [318]"];
2149370490560->2149370490432 [label="1"]

2149370490432 [label="str_match [318]"];
2149370490432->2149370513328 [label="1"]

2149370513328 [label=" ''.'' [318]"];
2149370504128->2149370504000 [label="3"]

2149370504000 [label="repeatable_expr [322]"];
2149370504000->2149370503872 [label="1"]

2149370503872 [label="expression [322]"];
2149370503872->2149370503744 [label="1"]

2149370503744 [label="assignment [322]"];
2149370503744->2149370513552 [label="1"]

2149370513552 [label="attribute 'code' [322]"];
2149370503744->2149370503360 [label="2"]

2149370503360 [label="assignment_op [327]"];
2149370503360->2149370513664 [label="1"]

2149370513664 [label=" '=' [327]"];
2149370503744->2149370503616 [label="3"]

2149370503616 [label="assignment_rhs [329]"];
2149370503616->2149370503488 [label="1"]

2149370503488 [label="reference [329]"];
2149370503488->2149370513888 [label="1"]

2149370513888 [label="rule_ref 'Container' [329]"];
2149370504384->2149370514000 [label="4"]

2149370514000 [label=" ';' [339]"];
2149370592832->2149370507072 [label="9"]

2149370507072 [label="textx_rule [342]"];
2149370507072->2149370514224 [label="1"]

2149370514224 [label="rule_name 'Bool' [342]"];
2149370507072->2149370514336 [label="2"]

2149370514336 [label=" ':' [346]"];
2149370507072->2149370506944 [label="3"]

2149370506944 [label="textx_rule_body [350]"];
2149370506944->2149370506816 [label="1"]

2149370506816 [label="sequence [350]"];
2149370506816->2149370506688 [label="1"]

2149370506688 [label="repeatable_expr [350]"];
2149370506688->2149370506560 [label="1"]

2149370506560 [label="expression [350]"];
2149370506560->2149370506432 [label="1"]

2149370506432 [label="bracketed_choice [350]"];
2149370506432->2149370514448 [label="1"]

2149370514448 [label=" '(' [350]"];
2149370506432->2149370506304 [label="2"]

2149370506304 [label="choice [351]"];
2149370506304->2149370505280 [label="1"]

2149370505280 [label="sequence [351]"];
2149370505280->2149370505152 [label="1"]

2149370505152 [label="repeatable_expr [351]"];
2149370505152->2149370505024 [label="1"]

2149370505024 [label="expression [351]"];
2149370505024->2149370504896 [label="1"]

2149370504896 [label="assignment [351]"];
2149370504896->2149370514672 [label="1"]

2149370514672 [label="attribute 'bool' [351]"];
2149370504896->2149370504512 [label="2"]

2149370504512 [label="assignment_op [356]"];
2149370504512->2149370514784 [label="1"]

2149370514784 [label=" '=' [356]"];
2149370504896->2149370504768 [label="3"]

2149370504768 [label="assignment_rhs [358]"];
2149370504768->2149370504640 [label="1"]

2149370504640 [label="reference [358]"];
2149370504640->2149370515008 [label="1"]

2149370515008 [label="rule_ref 'BoolTrue' [358]"];
2149370506304->2149370515120 [label="2"]

2149370515120 [label=" '|' [366]"];
2149370506304->2149370506176 [label="3"]

2149370506176 [label="sequence [368]"];
2149370506176->2149370506048 [label="1"]

2149370506048 [label="repeatable_expr [368]"];
2149370506048->2149370505920 [label="1"]

2149370505920 [label="expression [368]"];
2149370505920->2149370505792 [label="1"]

2149370505792 [label="assignment [368]"];
2149370505792->2149370515344 [label="1"]

2149370515344 [label="attribute 'bool' [368]"];
2149370505792->2149370505408 [label="2"]

2149370505408 [label="assignment_op [373]"];
2149370505408->2149370548288 [label="1"]

2149370548288 [label=" '=' [373]"];
2149370505792->2149370505664 [label="3"]

2149370505664 [label="assignment_rhs [375]"];
2149370505664->2149370505536 [label="1"]

2149370505536 [label="reference [375]"];
2149370505536->2149370548512 [label="1"]

2149370548512 [label="rule_ref 'BoolFalse' [375]"];
2149370506432->2149370548624 [label="3"]

2149370548624 [label=" ')' [384]"];
2149370507072->2149370548736 [label="4"]

2149370548736 [label=" ';' [386]"];
2149370592832->2149370561472 [label="10"]

2149370561472 [label="textx_rule [389]"];
2149370561472->2149370548960 [label="1"]

2149370548960 [label="rule_name 'BoolTrue' [389]"];
2149370561472->2149370549072 [label="2"]

2149370549072 [label=" ':' [397]"];
2149370561472->2149370561344 [label="3"]

2149370561344 [label="textx_rule_body [401]"];
2149370561344->2149370561216 [label="1"]

2149370561216 [label="sequence [401]"];
2149370561216->2149370561088 [label="1"]

2149370561088 [label="repeatable_expr [401]"];
2149370561088->2149370560960 [label="1"]

2149370560960 [label="expression [401]"];
2149370560960->2149370560832 [label="1"]

2149370560832 [label="simple_match [401]"];
2149370560832->2149370560704 [label="1"]

2149370560704 [label="str_match [401]"];
2149370560704->2149370549184 [label="1"]

2149370549184 [label=" ''true'' [401]"];
2149370561472->2149370549296 [label="4"]

2149370549296 [label=" ';' [408]"];
2149370592832->2149370562368 [label="11"]

2149370562368 [label="textx_rule [411]"];
2149370562368->2149370549520 [label="1"]

2149370549520 [label="rule_name 'BoolFalse' [411]"];
2149370562368->2149370549632 [label="2"]

2149370549632 [label=" ':' [420]"];
2149370562368->2149370562240 [label="3"]

2149370562240 [label="textx_rule_body [424]"];
2149370562240->2149370562112 [label="1"]

2149370562112 [label="sequence [424]"];
2149370562112->2149370561984 [label="1"]

2149370561984 [label="repeatable_expr [424]"];
2149370561984->2149370561856 [label="1"]

2149370561856 [label="expression [424]"];
2149370561856->2149370561728 [label="1"]

2149370561728 [label="simple_match [424]"];
2149370561728->2149370561600 [label="1"]

2149370561600 [label="str_match [424]"];
2149370561600->2149370549744 [label="1"]

2149370549744 [label=" ''false'' [424]"];
2149370562368->2149370549856 [label="4"]

2149370549856 [label=" ';' [432]"];
2149370592832->2149370563264 [label="12"]

2149370563264 [label="textx_rule [435]"];
2149370563264->2149370550080 [label="1"]

2149370550080 [label="rule_name 'String' [435]"];
2149370563264->2149370550192 [label="2"]

2149370550192 [label=" ':' [441]"];
2149370563264->2149370563136 [label="3"]

2149370563136 [label="textx_rule_body [445]"];
2149370563136->2149370563008 [label="1"]

2149370563008 [label="sequence [445]"];
2149370563008->2149370562880 [label="1"]

2149370562880 [label="repeatable_expr [445]"];
2149370562880->2149370562752 [label="1"]

2149370562752 [label="expression [445]"];
2149370562752->2149370562624 [label="1"]

2149370562624 [label="simple_match [445]"];
2149370562624->2149370550304 [label="1"]

2149370550304 [label="re_match '/'(?:[^'\\\\]|\\\\.)*'/' [445]"];
2149370563264->2149370550416 [label="4"]

2149370550416 [label=" ';' [465]"];
2149370592832->2149370557632 [label="13"]

2149370557632 [label="textx_rule [468]"];
2149370557632->2149370550640 [label="1"]

2149370550640 [label="rule_name 'Float' [468]"];
2149370557632->2149370550752 [label="2"]

2149370550752 [label=" ':' [473]"];
2149370557632->2149370557504 [label="3"]

2149370557504 [label="textx_rule_body [477]"];
2149370557504->2149370557376 [label="1"]

2149370557376 [label="sequence [477]"];
2149370557376->2149370564032 [label="1"]

2149370564032 [label="repeatable_expr [477]"];
2149370564032->2149370563904 [label="1"]

2149370563904 [label="expression [477]"];
2149370563904->2149370563776 [label="1"]

2149370563776 [label="assignment [477]"];
2149370563776->2149370550976 [label="1"]

2149370550976 [label="attribute 'a' [477]"];
2149370563776->2149370563392 [label="2"]

2149370563392 [label="assignment_op [479]"];
2149370563392->2149370551088 [label="1"]

2149370551088 [label=" '=' [479]"];
2149370563776->2149370563648 [label="3"]

2149370563648 [label="assignment_rhs [481]"];
2149370563648->2149370563520 [label="1"]

2149370563520 [label="reference [481]"];
2149370563520->2149370551312 [label="1"]

2149370551312 [label="rule_ref 'INT' [481]"];
2149370557376->2149370556480 [label="2"]

2149370556480 [label="repeatable_expr [485]"];
2149370556480->2149370564416 [label="1"]

2149370564416 [label="expression [485]"];
2149370564416->2149370564288 [label="1"]

2149370564288 [label="simple_match [485]"];
2149370564288->2149370564160 [label="1"]

2149370564160 [label="str_match [485]"];
2149370564160->2149370551424 [label="1"]

2149370551424 [label=" ''.'' [485]"];
2149370557376->2149370557248 [label="3"]

2149370557248 [label="repeatable_expr [489]"];
2149370557248->2149370557120 [label="1"]

2149370557120 [label="expression [489]"];
2149370557120->2149370556992 [label="1"]

2149370556992 [label="assignment [489]"];
2149370556992->2149370551648 [label="1"]

2149370551648 [label="attribute 'b' [489]"];
2149370556992->2149370556608 [label="2"]

2149370556608 [label="assignment_op [491]"];
2149370556608->2149370551760 [label="1"]

2149370551760 [label=" '=' [491]"];
2149370556992->2149370556864 [label="3"]

2149370556864 [label="assignment_rhs [493]"];
2149370556864->2149370556736 [label="1"]

2149370556736 [label="reference [493]"];
2149370556736->2149370551984 [label="1"]

2149370551984 [label="rule_ref 'INT' [493]"];
2149370557632->2149370552096 [label="4"]

2149370552096 [label=" ';' [497]"];
2149370592832->2149370576576 [label="14"]

2149370576576 [label="textx_rule [500]"];
2149370576576->2149370568768 [label="1"]

2149370568768 [label="rule_name 'Object' [500]"];
2149370576576->2149370568880 [label="2"]

2149370568880 [label=" ':' [506]"];
2149370576576->2149370576448 [label="3"]

2149370576448 [label="textx_rule_body [510]"];
2149370576448->2149370558528 [label="1"]

2149370558528 [label="sequence [510]"];
2149370558528->2149370558400 [label="1"]

2149370558400 [label="repeatable_expr [510]"];
2149370558400->2149370558272 [label="1"]

2149370558272 [label="expression [510]"];
2149370558272->2149370558144 [label="1"]

2149370558144 [label="assignment [510]"];
2149370558144->2149370569104 [label="1"]

2149370569104 [label="attribute 'obj' [510]"];
2149370558144->2149370557760 [label="2"]

2149370557760 [label="assignment_op [514]"];
2149370557760->2149370569216 [label="1"]

2149370569216 [label=" '=' [514]"];
2149370558144->2149370558016 [label="3"]

2149370558016 [label="assignment_rhs [516]"];
2149370558016->2149370557888 [label="1"]

2149370557888 [label="reference [516]"];
2149370557888->2149370569440 [label="1"]

2149370569440 [label="rule_ref 'Bool' [516]"];
2149370576448->2149370569552 [label="2"]

2149370569552 [label=" '|' [521]"];
2149370576448->2149370559424 [label="3"]

2149370559424 [label="sequence [523]"];
2149370559424->2149370559296 [label="1"]

2149370559296 [label="repeatable_expr [523]"];
2149370559296->2149370559168 [label="1"]

2149370559168 [label="expression [523]"];
2149370559168->2149370559040 [label="1"]

2149370559040 [label="assignment [523]"];
2149370559040->2149370569776 [label="1"]

2149370569776 [label="attribute 'obj' [523]"];
2149370559040->2149370558656 [label="2"]

2149370558656 [label="assignment_op [527]"];
2149370558656->2149370569888 [label="1"]

2149370569888 [label=" '=' [527]"];
2149370559040->2149370558912 [label="3"]

2149370558912 [label="assignment_rhs [529]"];
2149370558912->2149370558784 [label="1"]

2149370558784 [label="reference [529]"];
2149370558784->2149370570112 [label="1"]

2149370570112 [label="rule_ref 'Float' [529]"];
2149370576448->2149370570224 [label="4"]

2149370570224 [label=" '|' [535]"];
2149370576448->2149370560320 [label="5"]

2149370560320 [label="sequence [537]"];
2149370560320->2149370560192 [label="1"]

2149370560192 [label="repeatable_expr [537]"];
2149370560192->2149370560064 [label="1"]

2149370560064 [label="expression [537]"];
2149370560064->2149370559936 [label="1"]

2149370559936 [label="assignment [537]"];
2149370559936->2149370570448 [label="1"]

2149370570448 [label="attribute 'obj' [537]"];
2149370559936->2149370559552 [label="2"]

2149370559552 [label="assignment_op [541]"];
2149370559552->2149370570560 [label="1"]

2149370570560 [label=" '=' [541]"];
2149370559936->2149370559808 [label="3"]

2149370559808 [label="assignment_rhs [543]"];
2149370559808->2149370559680 [label="1"]

2149370559680 [label="reference [543]"];
2149370559680->2149370570784 [label="1"]

2149370570784 [label="rule_ref 'INT' [543]"];
2149370576448->2149370570896 [label="6"]

2149370570896 [label=" '|' [547]"];
2149370576448->2149370573632 [label="7"]

2149370573632 [label="sequence [549]"];
2149370573632->2149370573504 [label="1"]

2149370573504 [label="repeatable_expr [549]"];
2149370573504->2149370573376 [label="1"]

2149370573376 [label="expression [549]"];
2149370573376->2149370573248 [label="1"]

2149370573248 [label="assignment [549]"];
2149370573248->2149370571120 [label="1"]

2149370571120 [label="attribute 'obj' [549]"];
2149370573248->2149370572864 [label="2"]

2149370572864 [label="assignment_op [553]"];
2149370572864->2149370571232 [label="1"]

2149370571232 [label=" '=' [553]"];
2149370573248->2149370573120 [label="3"]

2149370573120 [label="assignment_rhs [555]"];
2149370573120->2149370572992 [label="1"]

2149370572992 [label="reference [555]"];
2149370572992->2149370571456 [label="1"]

2149370571456 [label="rule_ref 'String' [555]"];
2149370576448->2149370571568 [label="8"]

2149370571568 [label=" '|' [562]"];
2149370576448->2149370574528 [label="9"]

2149370574528 [label="sequence [564]"];
2149370574528->2149370574400 [label="1"]

2149370574400 [label="repeatable_expr [564]"];
2149370574400->2149370574272 [label="1"]

2149370574272 [label="expression [564]"];
2149370574272->2149370574144 [label="1"]

2149370574144 [label="assignment [564]"];
2149370574144->2149370571792 [label="1"]

2149370571792 [label="attribute 'obj' [564]"];
2149370574144->2149370573760 [label="2"]

2149370573760 [label="assignment_op [568]"];
2149370573760->2149370571904 [label="1"]

2149370571904 [label=" '=' [568]"];
2149370574144->2149370574016 [label="3"]

2149370574016 [label="assignment_rhs [570]"];
2149370574016->2149370573888 [label="1"]

2149370573888 [label="reference [570]"];
2149370573888->2149370572128 [label="1"]

2149370572128 [label="rule_ref 'EvokeCall' [570]"];
2149370576448->2149370572240 [label="10"]

2149370572240 [label=" '|' [580]"];
2149370576448->2149370575424 [label="11"]

2149370575424 [label="sequence [582]"];
2149370575424->2149370575296 [label="1"]

2149370575296 [label="repeatable_expr [582]"];
2149370575296->2149370575168 [label="1"]

2149370575168 [label="expression [582]"];
2149370575168->2149370575040 [label="1"]

2149370575040 [label="assignment [582]"];
2149370575040->2149370572464 [label="1"]

2149370572464 [label="attribute 'obj' [582]"];
2149370575040->2149370574656 [label="2"]

2149370574656 [label="assignment_op [586]"];
2149370574656->2149370572576 [label="1"]

2149370572576 [label=" '=' [586]"];
2149370575040->2149370574912 [label="3"]

2149370574912 [label="assignment_rhs [588]"];
2149370574912->2149370574784 [label="1"]

2149370574784 [label="reference [588]"];
2149370574784->2149370544192 [label="1"]

2149370544192 [label="rule_ref 'Variable' [588]"];
2149370576448->2149370544304 [label="12"]

2149370544304 [label=" '|' [597]"];
2149370576448->2149370576320 [label="13"]

2149370576320 [label="sequence [599]"];
2149370576320->2149370576192 [label="1"]

2149370576192 [label="repeatable_expr [599]"];
2149370576192->2149370576064 [label="1"]

2149370576064 [label="expression [599]"];
2149370576064->2149370575936 [label="1"]

2149370575936 [label="assignment [599]"];
2149370575936->2149370544528 [label="1"]

2149370544528 [label="attribute 'obj' [599]"];
2149370575936->2149370575552 [label="2"]

2149370575552 [label="assignment_op [603]"];
2149370575552->2149370544640 [label="1"]

2149370544640 [label=" '=' [603]"];
2149370575936->2149370575808 [label="3"]

2149370575808 [label="assignment_rhs [605]"];
2149370575808->2149370575680 [label="1"]

2149370575680 [label="reference [605]"];
2149370575680->2149370544864 [label="1"]

2149370544864 [label="rule_ref 'Function' [605]"];
2149370576576->2149370544976 [label="4"]

2149370544976 [label=" ';' [614]"];
2149370592832->2149370590784 [label="15"]

2149370590784 [label="textx_rule [617]"];
2149370590784->2149370545200 [label="1"]

2149370545200 [label="rule_name 'EvokeCallObject' [617]"];
2149370590784->2149370545312 [label="2"]

2149370545312 [label=" ':' [632]"];
2149370590784->2149370590656 [label="3"]

2149370590656 [label="textx_rule_body [636]"];
2149370590656->2149370577600 [label="1"]

2149370577600 [label="sequence [636]"];
2149370577600->2149370577472 [label="1"]

2149370577472 [label="repeatable_expr [636]"];
2149370577472->2149370577344 [label="1"]

2149370577344 [label="expression [636]"];
2149370577344->2149370577216 [label="1"]

2149370577216 [label="assignment [636]"];
2149370577216->2149370545536 [label="1"]

2149370545536 [label="attribute 'obj' [636]"];
2149370577216->2149370576704 [label="2"]

2149370576704 [label="assignment_op [640]"];
2149370576704->2149370545648 [label="1"]

2149370545648 [label=" '=' [640]"];
2149370577216->2149370577088 [label="3"]

2149370577088 [label="assignment_rhs [642]"];
2149370577088->2149370576960 [label="1"]

2149370576960 [label="reference [642]"];
2149370576960->2149370545872 [label="1"]

2149370545872 [label="rule_ref 'Bool' [642]"];
2149370590656->2149370545984 [label="2"]

2149370545984 [label=" '|' [647]"];
2149370590656->2149370578496 [label="3"]

2149370578496 [label="sequence [649]"];
2149370578496->2149370578368 [label="1"]

2149370578368 [label="repeatable_expr [649]"];
2149370578368->2149370578240 [label="1"]

2149370578240 [label="expression [649]"];
2149370578240->2149370578112 [label="1"]

2149370578112 [label="assignment [649]"];
2149370578112->2149370546208 [label="1"]

2149370546208 [label="attribute 'obj' [649]"];
2149370578112->2149370577728 [label="2"]

2149370577728 [label="assignment_op [653]"];
2149370577728->2149370546320 [label="1"]

2149370546320 [label=" '=' [653]"];
2149370578112->2149370577984 [label="3"]

2149370577984 [label="assignment_rhs [655]"];
2149370577984->2149370577856 [label="1"]

2149370577856 [label="reference [655]"];
2149370577856->2149370546544 [label="1"]

2149370546544 [label="rule_ref 'Float' [655]"];
2149370590656->2149370546656 [label="4"]

2149370546656 [label=" '|' [661]"];
2149370590656->2149370579392 [label="5"]

2149370579392 [label="sequence [663]"];
2149370579392->2149370579264 [label="1"]

2149370579264 [label="repeatable_expr [663]"];
2149370579264->2149370579136 [label="1"]

2149370579136 [label="expression [663]"];
2149370579136->2149370579008 [label="1"]

2149370579008 [label="assignment [663]"];
2149370579008->2149370546880 [label="1"]

2149370546880 [label="attribute 'obj' [663]"];
2149370579008->2149370578624 [label="2"]

2149370578624 [label="assignment_op [667]"];
2149370578624->2149370546992 [label="1"]

2149370546992 [label=" '=' [667]"];
2149370579008->2149370578880 [label="3"]

2149370578880 [label="assignment_rhs [669]"];
2149370578880->2149370578752 [label="1"]

2149370578752 [label="reference [669]"];
2149370578752->2149370547216 [label="1"]

2149370547216 [label="rule_ref 'INT' [669]"];
2149370590656->2149370547328 [label="6"]

2149370547328 [label=" '|' [673]"];
2149370590656->2149370580416 [label="7"]

2149370580416 [label="sequence [675]"];
2149370580416->2149370580288 [label="1"]

2149370580288 [label="repeatable_expr [675]"];
2149370580288->2149370580160 [label="1"]

2149370580160 [label="expression [675]"];
2149370580160->2149370580032 [label="1"]

2149370580032 [label="assignment [675]"];
2149370580032->2149370547552 [label="1"]

2149370547552 [label="attribute 'obj' [675]"];
2149370580032->2149370579648 [label="2"]

2149370579648 [label="assignment_op [679]"];
2149370579648->2149370547664 [label="1"]

2149370547664 [label=" '=' [679]"];
2149370580032->2149370579904 [label="3"]

2149370579904 [label="assignment_rhs [681]"];
2149370579904->2149370579776 [label="1"]

2149370579776 [label="reference [681]"];
2149370579776->2149370547888 [label="1"]

2149370547888 [label="rule_ref 'String' [681]"];
2149370590656->2149370548000 [label="8"]

2149370548000 [label=" '|' [688]"];
2149370590656->2149370589632 [label="9"]

2149370589632 [label="sequence [690]"];
2149370589632->2149370589504 [label="1"]

2149370589504 [label="repeatable_expr [690]"];
2149370589504->2149370589376 [label="1"]

2149370589376 [label="expression [690]"];
2149370589376->2149370589248 [label="1"]

2149370589248 [label="assignment [690]"];
2149370589248->2149370585152 [label="1"]

2149370585152 [label="attribute 'obj' [690]"];
2149370589248->2149370580544 [label="2"]

2149370580544 [label="assignment_op [694]"];
2149370580544->2149370585264 [label="1"]

2149370585264 [label=" '=' [694]"];
2149370589248->2149370580800 [label="3"]

2149370580800 [label="assignment_rhs [696]"];
2149370580800->2149370580672 [label="1"]

2149370580672 [label="reference [696]"];
2149370580672->2149370585488 [label="1"]

2149370585488 [label="rule_ref 'Variable' [696]"];
2149370590656->2149370585600 [label="10"]

2149370585600 [label=" '|' [705]"];
2149370590656->2149370590528 [label="11"]

2149370590528 [label="sequence [707]"];
2149370590528->2149370590400 [label="1"]

2149370590400 [label="repeatable_expr [707]"];
2149370590400->2149370590272 [label="1"]

2149370590272 [label="expression [707]"];
2149370590272->2149370590144 [label="1"]

2149370590144 [label="assignment [707]"];
2149370590144->2149370585824 [label="1"]

2149370585824 [label="attribute 'obj' [707]"];
2149370590144->2149370589760 [label="2"]

2149370589760 [label="assignment_op [711]"];
2149370589760->2149370585936 [label="1"]

2149370585936 [label=" '=' [711]"];
2149370590144->2149370590016 [label="3"]

2149370590016 [label="assignment_rhs [713]"];
2149370590016->2149370589888 [label="1"]

2149370589888 [label="reference [713]"];
2149370589888->2149370586160 [label="1"]

2149370586160 [label="rule_ref 'Function' [713]"];
2149370590784->2149370586272 [label="4"]

2149370586272 [label=" ';' [722]"];
2149370592832->2149370592704 [label="16"]

2149370592704 [label="textx_rule [725]"];
2149370592704->2149370586496 [label="1"]

2149370586496 [label="rule_name 'EvokeCall' [725]"];
2149370592704->2149370586608 [label="2"]

2149370586608 [label=" ':' [734]"];
2149370592704->2149370592576 [label="3"]

2149370592576 [label="textx_rule_body [738]"];
2149370592576->2149370592448 [label="1"]

2149370592448 [label="sequence [738]"];
2149370592448->2149370591552 [label="1"]

2149370591552 [label="repeatable_expr [738]"];
2149370591552->2149370591424 [label="1"]

2149370591424 [label="expression [738]"];
2149370591424->2149370591296 [label="1"]

2149370591296 [label="assignment [738]"];
2149370591296->2149370586832 [label="1"]

2149370586832 [label="attribute 'obj' [738]"];
2149370591296->2149370590912 [label="2"]

2149370590912 [label="assignment_op [742]"];
2149370590912->2149370586944 [label="1"]

2149370586944 [label=" '=' [742]"];
2149370591296->2149370591168 [label="3"]

2149370591168 [label="assignment_rhs [744]"];
2149370591168->2149370591040 [label="1"]

2149370591040 [label="reference [744]"];
2149370591040->2149370587168 [label="1"]

2149370587168 [label="rule_ref 'EvokeCallObject' [744]"];
2149370592448->2149370592320 [label="2"]

2149370592320 [label="repeatable_expr [760]"];
2149370592320->2149370592192 [label="1"]

2149370592192 [label="expression [760]"];
2149370592192->2149370592064 [label="1"]

2149370592064 [label="assignment [760]"];
2149370592064->2149370587392 [label="1"]

2149370587392 [label="attribute 'cont' [760]"];
2149370592064->2149370591680 [label="2"]

2149370591680 [label="assignment_op [765]"];
2149370591680->2149370587504 [label="1"]

2149370587504 [label=" '=' [765]"];
2149370592064->2149370591936 [label="3"]

2149370591936 [label="assignment_rhs [767]"];
2149370591936->2149370591808 [label="1"]

2149370591808 [label="reference [767]"];
2149370591808->2149370587728 [label="1"]

2149370587728 [label="rule_ref 'Container' [767]"];
2149370592704->2149370587840 [label="4"]

2149370587840 [label=" ';' [777]"];
2149370592832->2149370587952 [label="17"]

2149370587952 [label="EOF [779]"];
}